INDEX VERSION 1.131+C:\Users\lucav\Documents\restful-calculator\.metadata\.plugins\org.eclipse.jdt.core
3260877587.index
4099140291.index
3423988565.index
2233543797.index
279788963.index
3167793799.index
2824514409.index
913486600.index
4260759647.index
71018339.index
293692079.index
3583204614.index
3064462347.index
692810719.index
895691298.index
1797410714.index
4179845024.index
2551136074.index
201980141.index
3051292476.index
1995214874.index
2929715462.index
1771489915.index
1506651340.index
1602775745.index
922588705.index
2137645919.index
2179717401.index
1494953510.index
3449715113.index
3778645487.index
4235641128.index
1079038258.index
1316761058.index
2427286594.index
948089087.index
1748468536.index
9243875.index
3803056603.index
3212768060.index
3942302298.index
298252032.index
1103452033.index
1334412443.index
3068640910.index
4013218907.index
4115764988.index
2843257405.index
752362119.index
797678909.index
712347805.index
2619365489.index
295705763.index
272433564.index
1262862166.index
112612445.index
395640850.index
1550167488.index
839957354.index
1903149133.index
3799016259.index
242263447.index
2542750404.index
2999870545.index
3354392727.index
495217312.index
318857592.index
891433793.index
2303927635.index
1075874757.index
2970343863.index
2827973200.index
518140683.index
1598819030.index
3495929123.index
957189814.index
3243979010.index
381126450.index
2503927111.index
1222724224.index
4182485106.index
3699097085.index
2116625659.index
164392758.index
1986492964.index
2494819684.index
980806067.index
835840728.index
4060431134.index
3435648363.index
3013794362.index
2694812966.index
3072420806.index
1088044411.index
852172140.index
1179199774.index
